…
```r
long_n_meth_s3_generic <- n_meth_s3_generic %>% 
  pivot_longer(
    everything(), 
    names_to = "generic_name", 
    values_to = "n_methods")

long_n_meth_s3_generic
```

```
## # A tibble: 172 × 2
##    generic_name n_methods
##    <chr>            <int>
##  1 -                    4
##  2 !=                   3
##  3 $                   17
##  4 $<-                 14
##  5 %%                   1
##  6 %/%                  1
##  7 &                    3
##  8 *                    2
##  9 /                    2
## 10 [                   60
## # … with 162 more rows
```
…
```
## [ is implemented by do_subset with op = 1
```

```
## Please visit https://github.com/search?q=SEXP%20attribute_hidden%20do_subset+repo:wch/r-source&type=Code
```


```r
s3_methods_generic("[")
```

```
## # A tibble: 60 × 4
##    generic class                 visible source             
##    <chr>   <chr>                 <lgl>   <chr>              
##  1 [       acf                   FALSE   registered S3method
##  2 [       arrow                 FALSE   registered S3method
##  3 [       AsIs                  TRUE    base               
##  4 [       bibentry              FALSE   registered S3method
##  5 [       check_details_changes FALSE   registered S3method
##  6 [       cli_doc               FALSE   registered S3method
##  7 [       data.frame            TRUE    base               
##  8 [       Date                  TRUE    base               
##  9 [       difftime              TRUE    base               
## 10 [       Dlist                 TRUE    base               
## # … with 50 more rows
```
…
