…
### 3.6.3 Printing 

One of the most obvious differences between tibbles and data frames is how they print. I assume that you're already familiar with how data frames are printed, so here I'll highlight some of the biggest differences using an example dataset included in the dplyr package:


```r
dplyr::starwars
```

```
## # A tibble: 87 × 14
##    name        height  mass hair_…¹ skin_…² eye_c…³ birth…⁴ sex   gender homew…⁵
##    <chr>        <int> <dbl> <chr>   <chr>   <chr>     <dbl> <chr> <chr>  <chr>  
##  1 Luke Skywa…    172    77 blond   fair    blue       19   male  mascu… Tatooi…
##  2 C-3PO          167    75 <NA>    gold    yellow    112   none  mascu… Tatooi…
##  3 R2-D2           96    32 <NA>    white,… red        33   none  mascu… Naboo  
##  4 Darth Vader    202   136 none    white   yellow     41.9 male  mascu… Tatooi…
##  5 Leia Organa    150    49 brown   light   brown      19   fema… femin… Aldera…
##  6 Owen Lars      178   120 brown,… light   blue       52   male  mascu… Tatooi…
##  7 Beru White…    165    75 brown   light   blue       47   fema… femin… Tatooi…
##  8 R5-D4           97    32 <NA>    white,… red        NA   none  mascu… Tatooi…
##  9 Biggs Dark…    183    84 black   light   brown      24   male  mascu… Tatooi…
## 10 Obi-Wan Ke…    182    77 auburn… fair    blue-g…    57   male  mascu… Stewjon
## # … with 77 more rows, 4 more variables: species <chr>, films <list>,
## #   vehicles <list>, starships <list>, and abbreviated variable names
## #   ¹​hair_color, ²​skin_color, ³​eye_color, ⁴​birth_year, ⁵​homeworld
```
…
